…
``` r
## Border crossings by port
border_crossing_df %>% 
  group_by(port_name_state) %>% 
  summarize(n = sum(value)) %>% 
  arrange(desc(n))
```

    ## `summarise()` ungrouping output (override with `.groups` argument)

    ## # A tibble: 117 x 2
    ##    port_name_state                        n
    ##    <chr>                              <dbl>
    ##  1 San Ysidro_California          961771552
    ##  2 El Paso_Texas                  879953412
    ##  3 Laredo_Texas                   514981282
    ##  4 Buffalo-Niagara Falls_New York 426670702
    ##  5 Hidalgo_Texas                  421612662
    ##  6 Brownsville_Texas              403087196
    ##  7 Otay Mesa_California           383875040
    ##  8 Calexico_California            380156649
    ##  9 Detroit_Michigan               353224718
    ## 10 Nogales_Arizona                323086640
    ## # ... with 107 more rows
…
